[{
	"name": "cashbill_direct",
	"label": "Cashbill",
	"enabled": true
},{
	"name": "simple_cash",
	"label": "Gotówka",
	"enabled": true
},{
	"name": "simple_bank_transfer",
	"label": "Przelew tradycyjny",
	"enabled": true
},{
	"name": "simple_cod",
	"label": "Za pobraniem",
	"enabled": true
}]
